MSc_EmbSys/HLS/lab5/Counter/trace_NAME.vcd
$date
     May 14, 2024       17:02:35
$end

$version
 SystemC 2.3.3-Accellera --- Mar 17 2022 13:55:26
$end

$timescale
     1 ns
$end

$scope module SystemC $end
$var wire    1  aaaaa  reset       $end
$var wire    1  aaaab  clk       $end
$var wire    1  aaaac  count       $end
$var wire   32  aaaad  q [31:0]  $end
$upscope $end
$enddefinitions  $end

$comment
All initial values are dumped below at time 0 sec = 0 timescale units.
$end

$dumpvars
1aaaaa
1aaaab
0aaaac
b0 aaaad
$end

#10
0aaaab
1aaaac

#20
1aaaab
0aaaac

#30
0aaaab
1aaaac

#40
1aaaab
0aaaac

#50
0aaaab
1aaaac

#60
1aaaab
0aaaac

#70
0aaaab
1aaaac

#80
1aaaab
0aaaac

#90
0aaaab
1aaaac

#100
1aaaab
0aaaac

#110
0aaaab
1aaaac

#120
1aaaab
0aaaac

#130
0aaaab
1aaaac

#140
1aaaab
0aaaac

#150
0aaaab
1aaaac

#160
1aaaab
0aaaac

#170
0aaaab
1aaaac

#180
1aaaab
0aaaac

#190
0aaaab
1aaaac

#200
1aaaab
0aaaac

#210
0aaaab
1aaaac

#220
1aaaab
0aaaac

#230
0aaaab
1aaaac

#240
1aaaab
0aaaac

#250
0aaaab
1aaaac

#260
1aaaab
0aaaac

#270
0aaaab
1aaaac

#280
1aaaab
0aaaac

#290
0aaaab
1aaaac

#300
1aaaab
0aaaac

#310
0aaaab
1aaaac

#320
1aaaab
0aaaac

#330
0aaaab
1aaaac

#340
1aaaab
0aaaac

#350
0aaaab
1aaaac

#360
1aaaab
0aaaac

#370
0aaaab
1aaaac

#380
1aaaab
0aaaac

#390
0aaaab
1aaaac

#400
1aaaab
0aaaac

#410
0aaaab
1aaaac

#420
1aaaab
0aaaac

#430
0aaaab
1aaaac

#440
1aaaab
0aaaac

#450
0aaaab
1aaaac

#460
1aaaab
0aaaac

#470
0aaaab
1aaaac

#480
1aaaab
0aaaac

#490
0aaaab
1aaaac

